,P0,P1,P2,P3,Jones0,Jones1,Jones2,Farrell0,Farrell1,Farrell2
Dist. To Source  [m],6.7,22.5,34.9,51.3,2,5,10,2,5,10
Duration [min],6.7,15.3,24.9,13.7,10,10,10,10,10,10
Mean: $\bar{c}$ ,2.5,11.2,9.4,14.9,28.4,5.3,1.5,1494,655.4,136.9
Mean Norm.: $\bar{c}/\bar{c}_0$,1,4.48,3.76,5.96,1,0.19,0.05,1,0.44,0.09
Std: $\sigma_{c}$ ,3.3,6.4,6.5,4.1,12.6,2.21,0.82,2037,958,339
CV: $\sigma_{c}/\bar{c}$ ,1.3,0.59,0.69,0.28,0.44,0.41,0.56,1.36,1.46,2.48
PMR,7.2,2.9,3.1,1.6,36.4,78.2,112,14.33,43.06,144.14
