Burst Length,P0,P1,P2,P3,Jones0,Jones1,Farrell0,Farrell1
Dist. To Source  [m],6.7,22.5,34.9,51.3,2,15,2,15
$\tau_{low}$,2,2,2,8,200,200,0.05,0.05
Mean [s],75.7,93.4,11.4,84.4,0.05,0.08,0.02,0.02
Max [s],95.9,222.4,318.8,418.2,1,1,0.9,0.9
$\tau_{high}$,8,20,20,20,2000,2000,0.5,0.5
Mean [s],6.8,8.1,2.1,20.1,0.02,0.02,0.01,0.01
Max [s],10.9,33.9,27.8,47.5,0.1,0.2,0.5,0.1
