,P0,P1,P2,P3,J0,J1,J2,F0,F1,F2
Dist. To Source  [m],6.7,22.5,34.9,51.3,2,5,10,2,5,10
Duration [min],6.7,15.3,24.9,13.7,10,10,10,10,10,10
Mean: $\bar{c}$ ,6.1,15.4,9.39,19.2,28.4,5.3,1.5,1494,655.4,136.9
Mean Norm.: $\bar{c}/\bar{c}_0$,1,2.51,1.54,3.12,1,0.19,0.05,1,0.44,0.09
Std: $\sigma_{\hat{c}}$ ,3.29,5.05,6.23,2.37,12.6,2.21,0.82,2037,958,339
CoV: $\sigma_{\hat{c}}/\bar{c}$ ,0.54,0.33,0.66,0.13,0.44,0.41,0.56,1.36,1.46,2.48
PMR,3.4,2.36,2.99,1.42,36.4,78.2,112,14.33,43.06,144.14
